Mini-Project #01: Exploring the Most Popular Programming on Netflix – STA 9750 Submission Material
…
us_films_reaching_number_one <- COUNTRY_TOP_10 |>
  filter(country_name == "United States", category == "Films") |>
  group_by(show_title) |>
  summarize(
    debut_rank = weekly_rank[which.min(week)],
    ever_hit_one = min(weekly_rank),
    debut_date = max(week, na.rm = TRUE),
    .groups = "drop"
  ) |>
  filter(ever_hit_one == 1, debut_rank > 1) |>
  arrange(desc(debut_date))

us_films_reaching_number_one

# A tibble: 45 × 4
   show_title                              debut_rank ever_hit_one debut_date
   <chr>                                        <dbl>        <dbl> <date>    
 1 KPop Demon Hunters                               6            1 2025-09-21
 2 Unknown Number: The High School Catfish          4            1 2025-09-21
 3 Despicable Me 2                                  2            1 2025-08-24
 4 Despicable Me 4                                  2            1 2025-07-27
 5 Plane                                            2            1 2025-06-29
 6 The Wild Robot                                   3            1 2025-06-08
 7 Twilight                                         3            1 2025-05-18
 8 Aftermath                                        4            1 2025-02-23
 9 The Boss Baby                                    6            1 2025-02-09
10 Don't Move                                       3            1 2024-11-10
# ℹ 35 more rows
…
total_views_indian_films

[1] 7464700000

Click to show code

total_hours_indian_films

[1] 27234040000

Click to show code

hindi_films_summary

# A tibble: 790 × 2
   show_title        total_weeks
   <chr>                   <dbl>
 1 RRR (Hindi)                25
 2 Haseen Dillruba            21
 3 Sooryavanshi               20
 4 Animal                     17
 5 Lucky Baskhar              17
 6 Laapataa Ladies            15
 7 Red Notice                 15
 8 Bhool Bhulaiyaa 2          14
 9 Mimi                       14
10 Maharaja                   12
# ℹ 780 more rows
…
