Mini-Project #03: Visualizing and Maintaining the Green Canopy of NYC – STA 9750 Submission Material
…
# The following answers question #1: Which council district has the most trees?
most_trees <- trees_districts %>%
group_by(CounDist) %>%
summarise(num_trees = n()) %>%
arrange(desc(num_trees))
most_trees

Simple feature collection with 52 features and 2 fields
Geometry type: MULTIPOINT
Dimension:     XY
Bounding box:  xmin: -74.25448 ymin: 40.49843 xmax: -73.70015 ymax: 40.91419
Geodetic CRS:  WGS 84
# A tibble: 52 × 3
   CounDist num_trees                                                   geometry
      <int>     <int>                                           <MULTIPOINT [°]>
 1       50     23051 ((-74.0244 40.61755), (-74.02752 40.61309), (-74.02748 40…
 2       51     22902 ((-74.14385 40.53726), (-74.14452 40.53772), (-74.14452 4…
 3       49     16790 ((-74.13039 40.60395), (-74.1303 40.60395), (-74.13013 40…
 4       13     13808 ((-73.8398 40.81095), (-73.83966 40.81076), (-73.83732 40…
 5       31     12061 ((-73.74935 40.68324), (-73.7493 40.68335), (-73.74868 40…
 6       42     11472 ((-73.88919 40.67414), (-73.88929 40.67413), (-73.88955 4…
 7       19     10723 ((-73.84936 40.77207), (-73.84912 40.77206), (-73.84688 4…
 8       46     10703 ((-73.9066 40.59553), (-73.90675 40.59566), (-73.9069 40.…
 9       48     10495 ((-73.93556 40.58594), (-73.93565 40.58593), (-73.93594 4…
10       11     10235 ((-73.84051 40.90053), (-73.84063 40.90051), (-73.84098 4…
# ℹ 42 more rows
…
`summarise()` has grouped output by 'CounDist'. You can override using the
`.groups` argument.

Click to show code

density_trees

Simple feature collection with 52 features and 4 fields
Geometry type: MULTIPOINT
Dimension:     XY
Bounding box:  xmin: -74.25448 ymin: 40.49843 xmax: -73.70015 ymax: 40.91419
Geodetic CRS:  WGS 84
# A tibble: 52 × 5
# Groups:   CounDist [52]
   CounDist Shape_Area num_trees                           geometry tree_density
      <int>      <dbl>     <int>                   <MULTIPOINT [°]>        <dbl>
 1        9  56263769.      8149 ((-73.93554 40.83492), (-73.93555…    0.000145 
 2        5  37752246.      5334 ((-73.95612 40.7871), (-73.95384 …    0.000141 
 3        7  55186140.      7502 ((-73.97426 40.79322), (-73.97418…    0.000136 
 4        2  48322121.      6185 ((-73.98039 40.74564), (-73.98042…    0.000128 
 5        4  66802515.      8052 ((-73.98377 40.75633), (-73.9839 …    0.000121 
 6       14  52585062.      5643 ((-73.88697 40.87465), (-73.88786…    0.000107 
 7        3  76315832.      7591 ((-73.99521 40.76891), (-73.99517…    0.0000995
 8       48 109815036.     10495 ((-73.93556 40.58594), (-73.93565…    0.0000956
 9       10  76997844.      6911 ((-73.91238 40.87039), (-73.91211…    0.0000898
10        6  82672687.      7223 ((-73.98395 40.76502), (-73.98406…    0.0000874
# ℹ 42 more rows
…
Simple feature collection with 52 features and 4 fields
Geometry type: MULTIPOINT
Dimension:     XY
Bounding box:  xmin: -74.25448 ymin: 40.49843 xmax: -73.70015 ymax: 40.91419
Geodetic CRS:  WGS 84
# A tibble: 52 × 5
   CounDist total  dead dead_fraction                                   geometry
      <int> <int> <int>         <dbl>                           <MULTIPOINT [°]>
 1       27  2162   466         0.216 ((-73.80668 40.70559), (-73.80676 40.7055…
 2       32  7086  1378         0.194 ((-73.86559 40.57181), (-73.86548 40.5718…
 3       30  6585  1158         0.176 ((-73.90157 40.70146), (-73.90173 40.7015…
 4       24  4928   851         0.173 ((-73.8457 40.7305), (-73.84569 40.73042)…
 5       20  3605   618         0.171 ((-73.83016 40.77279), (-73.83038 40.7724…
 6       28  2972   495         0.167 ((-73.80823 40.69204), (-73.80818 40.692)…
 7       13 13808  2265         0.164 ((-73.8398 40.81095), (-73.83966 40.81076…
 8       23  9627  1568         0.163 ((-73.77803 40.72328), (-73.77805 40.7251…
 9       19 10723  1743         0.163 ((-73.84936 40.77207), (-73.84912 40.7720…
10       29  6972  1129         0.162 ((-73.84204 40.68848), (-73.84205 40.6887…
# ℹ 42 more rows
…
# The following answers question #4: What is the most common tree species in Manhattan?
manhattan_species <- trees_districts %>%
filter(borough == "Manhattan") %>%
group_by(genusspecies) %>%
summarise(count = n()) %>%
arrange(desc(count))
manhattan_species

Simple feature collection with 236 features and 2 fields
Geometry type: GEOMETRY
Dimension:     XY
Bounding box:  xmin: -74.01836 ymin: 40.69303 xmax: -73.90257 ymax: 40.879
Geodetic CRS:  WGS 84
# A tibble: 236 × 3
   genusspecies                                  count                  geometry
   <chr>                                         <int>          <MULTIPOINT [°]>
 1 Gleditsia triacanthos var. inermis - Thornle… 13980 ((-73.99517 40.76898), (…
 2 Pyrus calleryana - Callery pear                7836 ((-74.00102 40.76115), (…
 3 Ginkgo biloba - maidenhair tree                5982 ((-74.00173 40.76099), (…
 4 Quercus palustris - pin oak                    4944 ((-73.99616 40.76763), (…
 5 Platanus x acerifolia - London planetree       4651 ((-73.99817 40.75914), (…
 6 Styphnolobium japonicum - Japanese pagoda tr…  4363 ((-73.996 40.76749), (-7…
 7 Zelkova serrata - Japanese zelkova             4217 ((-73.99521 40.76891), (…
 8 Tilia cordata - littleleaf linden              3358 ((-73.99346 40.76626), (…
 9 Unknown - Unknown                              1871 ((-73.99489 40.76901), (…
10 Ulmus americana - American elm                 1781 ((-73.99613 40.76767), (…
# ℹ 226 more rows
…
